…
The NY NOAA dataset contains 2595176 rows and 7 columns. Variables
include weather station id, date, precipitation, snowfall, snow depth,
and min and max temperature.

``` r
ny_noaa %>% 
  count(snow) %>%
  arrange(desc(n))
```

    ## # A tibble: 282 × 2
    ##     snow       n
    ##    <int>   <int>
    ##  1     0 2008508
    ##  2    NA  381221
    ##  3    25   31022
    ##  4    13   23095
    ##  5    51   18274
    ##  6    76   10173
    ##  7     8    9962
    ##  8     5    9748
    ##  9    38    9197
    ## 10     3    8790
    ## # ℹ 272 more rows
…
combined_data
```

    ## # A tibble: 228 × 1,445
    ##     seqn sex      age   bmi education     min1   min2   min3  min4   min5   min6
    ##    <dbl> <ord>  <dbl> <dbl> <ord>        <dbl>  <dbl>  <dbl> <dbl>  <dbl>  <dbl>
    ##  1 62161 male      22  23.3 High school… 1.11  3.12   1.47   0.938 1.60   0.145 
    ##  2 62164 female    44  23.2 More than h… 1.92  1.67   2.38   0.935 2.59   5.22  
    ##  3 62169 male      21  20.1 High school… 5.85  5.18   4.76   6.48  6.85   7.24  
    ##  4 62174 male      80  33.9 More than h… 5.42  3.48   3.72   3.81  6.85   4.45  
    ##  5 62177 male      51  20.1 High school… 6.14  8.06   9.99   6.60  4.57   2.78  
    ##  6 62178 male      80  28.5 High school… 0.167 0.429  0.131  1.20  0.0796 0.0487
    ##  7 62180 male      35  27.9 More than h… 0.039 0      0      0     0.369  0.265 
    ##  8 62184 male      26  22.1 High school… 1.55  2.81   3.86   4.76  6.10   7.61  
    ##  9 62189 female    30  22.4 More than h… 2.81  0.195  0.163  0     0.144  0.180 
    ## 10 62199 male      57  28   More than h… 0.031 0.0359 0.0387 0.079 0.109  0.262 
    ## # ℹ 218 more rows
    ## # ℹ 1,434 more variables: min7 <dbl>, min8 <dbl>, min9 <dbl>, min10 <dbl>,
    ## #   min11 <dbl>, min12 <dbl>, min13 <dbl>, min14 <dbl>, min15 <dbl>,
    ## #   min16 <dbl>, min17 <dbl>, min18 <dbl>, min19 <dbl>, min20 <dbl>,
    ## #   min21 <dbl>, min22 <dbl>, min23 <dbl>, min24 <dbl>, min25 <dbl>,
    ## #   min26 <dbl>, min27 <dbl>, min28 <dbl>, min29 <dbl>, min30 <dbl>,
    ## #   min31 <dbl>, min32 <dbl>, min33 <dbl>, min34 <dbl>, min35 <dbl>, …

I also used pivot_longer() to show the final dataset in another form.

``` r
combined_longer = combined_data %>%
  pivot_longer(min1:min1440,names_to = "time_min", values_to = "min_activity") %>%
  na.omit()

combined_longer
```

    ## # A tibble: 328,320 × 7
    ##     seqn sex     age   bmi education              time_min min_activity
    ##    <dbl> <ord> <dbl> <dbl> <ord>                  <chr>           <dbl>
    ##  1 62161 male     22  23.3 High school equivalent min1            1.11 
    ##  2 62161 male     22  23.3 High school equivalent min2            3.12 
    ##  3 62161 male     22  23.3 High school equivalent min3            1.47 
    ##  4 62161 male     22  23.3 High school equivalent min4            0.938
    ##  5 62161 male     22  23.3 High school equivalent min5            1.60 
    ##  6 62161 male     22  23.3 High school equivalent min6            0.145
    ##  7 62161 male     22  23.3 High school equivalent min7            2.10 
    ##  8 62161 male     22  23.3 High school equivalent min8            0.509
    ##  9 62161 male     22  23.3 High school equivalent min9            1.63 
    ## 10 62161 male     22  23.3 High school equivalent min10           1.20 
    ## # ℹ 328,310 more rows
…
